{
    "name": "msg",
    "version": "1.0.0",
    "description": "",
    "scripts": {
      "test": "echo \"Error: no test specified\" && exit 1",
      "lint": "eslint . --fix",
      "prepare": "husky install"
    },
    "repository": {
      "type": "git",
      "url": "git+ssh://git@bitbucket.org/pvz123/msg.git"
    },
    "author": "",
    "license": "ISC",
    "bugs": {
      "url": "https://bitbucket.org/pvz123/msg/issues"
    },
    "homepage": "https://bitbucket.org/pvz123/msg#readme",
    "dependencies": {
      "eslint": "^8.16.0",
      "husky": "^8.0.1"
    },
    "devDependencies": {
      "eslint-plugin-suitescript": "^1.2.1",
      "husky": "^8.0.0"
    }
  }
  